<?xml version="1.0" encoding="UTF-8" standalone="no"?>
<!-- Created with Inkscape (http://www.inkscape.org/) -->

<svg
   width="216"
   height="216"
   viewBox="0 0 57.149999 57.150004"
   version="1.1"
   id="svg1045"
   inkscape:version="1.1.1 (3bf5ae0d25, 2021-09-20)"
   sodipodi:docname="favicon.svg"
   inkscape:export-filename="C:\Users\Alex HAMON\Documents\Vbox_www\ATM64_barberz\images\favicon.png"
   inkscape:export-xdpi="50"
   inkscape:export-ydpi="50"
   xmlns:inkscape="http://www.inkscape.org/namespaces/inkscape"
   xmlns:sodipodi="http://sodipodi.sourceforge.net/DTD/sodipodi-0.dtd"
   xmlns="http://www.w3.org/2000/svg"
   xmlns:svg="http://www.w3.org/2000/svg">
  <sodipodi:namedview
     id="namedview1047"
     pagecolor="#ffffff"
     bordercolor="#666666"
     borderopacity="1.0"
     inkscape:pageshadow="2"
     inkscape:pageopacity="0.0"
     inkscape:pagecheckerboard="0"
     inkscape:document-units="mm"
     showgrid="false"
     fit-margin-top="0"
     lock-margins="true"
     fit-margin-left="0"
     fit-margin-right="0"
     fit-margin-bottom="0"
     units="px"
     inkscape:zoom="1.2810466"
     inkscape:cx="195.54324"
     inkscape:cy="161.97693"
     inkscape:window-width="1920"
     inkscape:window-height="1057"
     inkscape:window-x="-8"
     inkscape:window-y="1072"
     inkscape:window-maximized="1"
     inkscape:current-layer="layer1" />
  <defs
     id="defs1042">
    <filter
       inkscape:collect="always"
       style="color-interpolation-filters:sRGB"
       id="filter47103"
       x="-0.027180904"
       y="-0.027180904"
       width="1.0543618"
       height="1.0543618">
      <feGaussianBlur
         inkscape:collect="always"
         stdDeviation="1.62467"
         id="feGaussianBlur47105" />
    </filter>
  </defs>
  <g
     inkscape:label="Calque 1"
     inkscape:groupmode="layer"
     id="layer1"
     transform="translate(-47.870796,-13.488406)">
    <g
       id="g2315"
       transform="matrix(0.37411669,0,0,0.37783497,261.19092,85.246846)"
       style="stroke-width:2.65976">
      <path
         id="circle47083"
         style="fill:#565656;stroke-width:0.703734;filter:url(#filter47103);stop-color:#000000"
         d="m -422.08986,-114.2918 a 71.726974,71.726974 0 0 1 -71.72697,71.726973 71.726974,71.726974 0 0 1 -71.72698,-71.726973 71.726974,71.726974 0 0 1 71.72698,-71.72698 71.726974,71.726974 0 0 1 71.72697,71.72698 z" />
      <g
         id="g2307"
         style="stroke-width:2.65976">
        <path
           id="circle2065"
           style="fill:#9bcad4;stroke-width:0.703734;stop-color:#000000"
           d="m -425.02516,-116.93768 a 70.379166,70.379166 0 0 1 -70.37917,70.379163 70.379166,70.379166 0 0 1 -70.37916,-70.379163 70.379166,70.379166 0 0 1 70.37916,-70.37917 70.379166,70.379166 0 0 1 70.37917,70.37917 z" />
        <path
           id="circle41493"
           style="font-variation-settings:normal;vector-effect:none;fill:#5f888c;fill-opacity:1;stroke:none;stroke-width:0.703734;stroke-linecap:butt;stroke-linejoin:miter;stroke-miterlimit:4;stroke-dasharray:none;stroke-dashoffset:0;stroke-opacity:1;-inkscape-stroke:none;stop-color:#000000"
           d="m -449.57138,-146.11648 c -3.35398,31.48296 -6.82009,48.186819 -30.49168,66.598008 -16.27766,4.462383 -34.44173,0.200766 -54.71035,-13.795031 l -6.16346,5.550562 12.75529,33.050188 a 70.379166,70.379166 0 0 0 32.77734,8.154035 70.379166,70.379166 0 0 0 70.37916,-70.379162 70.379166,70.379166 0 0 0 -0.0217,-1.69707 z" />
        <path
           style="color:#000000;fill:#565656;stroke-width:2.65976;-inkscape-stroke:none"
           d="m -495.4043,-187.51562 c -38.97654,0 -70.57812,31.60158 -70.57812,70.57812 0,38.976544 31.60158,70.578125 70.57812,70.578125 38.97655,0 70.57813,-31.601581 70.57813,-70.578125 0,-38.97654 -31.60158,-70.57812 -70.57813,-70.57812 z m 0,0.39648 c 38.76206,0 70.18164,31.41958 70.18164,70.18164 0,38.762058 -31.41958,70.179687 -70.18164,70.179688 -38.76205,0 -70.18164,-31.41763 -70.18164,-70.179688 0,-38.76206 31.41959,-70.18164 70.18164,-70.18164 z"
           id="circle61162" />
        <path
           id="path3919"
           sodipodi:nodetypes="ccscscscsscscssssssscscsscscscsssssscscsssscscsssscscsssssccscsscssscccsscsscccsssssssssssscsssscscccccccsscssssssscscccccccccccsscsscccsscscccsssscccssssscccccccccscccscscccccccsss"
           style="fill:#565656;fill-opacity:1;stroke-width:0.703734"
           inkscape:connector-curvature="0"
           d="m -504.43356,-68.210876 2.58765,-4.1486 0.73903,0.1083 c 1.77544,0.2602 3.80365,0.4052 5.68854,0.4066 1.83775,0 2.57342,-0.049 5.76078,-0.3965 l 0.97364,-0.1061 2.38609,3.8656 c 1.31231,2.1261 2.48489,4.0005 2.60572,4.1653 0.21159,0.2886 0.29099,0.2805 2.15556,-0.2205 2.6339,-0.7077 5.73035,-1.7982 8.30368,-2.9244 2.82681,-1.2372 7.02575,-3.5393 7.02337,-3.8508 0,-0.066 -0.50004,-2.2183 -1.11011,-4.7834 l -1.10919,-4.6638 1.63748,-1.3338 c 2.04243,-1.6636 4.83023,-4.4534 6.41615,-6.4203 0.66468,-0.8245 1.31249,-1.4991 1.43954,-1.4991 0.12708,0 2.26909,0.4746 4.76012,1.0547 2.49095,0.5802 4.55851,1.0549 4.59423,1.0549 0.17361,0 1.85975,-3.0271 3.00169,-5.3888 1.54049,-3.1861 2.67468,-6.1923 3.56553,-9.452204 0.5112,-1.8702 0.61648,-2.4552 0.45884,-2.5508 -0.1125,-0.068 -1.99364,-1.2422 -4.18042,-2.6089 -3.17235,-1.9827 -3.96822,-2.5494 -3.93859,-2.8043 0.49742,-4.286 0.47562,-9.8425 -0.0488,-12.4293 -0.0819,-0.4039 0.12107,-0.5551 3.92086,-2.921 2.20398,-1.3723 4.08437,-2.5449 4.17883,-2.6058 0.35893,-0.2315 -1.15737,-5.4067 -2.64319,-9.0215 -1.07016,-2.6034 -3.43667,-7.2419 -4.30133,-8.4304 -0.0145,-0.02 -2.17657,0.4751 -4.8043,1.1004 l -4.77758,1.137 -0.48684,-0.6109 c -2.36953,-2.9736 -4.80668,-5.4329 -7.66762,-7.7377 -0.64707,-0.5213 -1.1765,-0.9742 -1.1765,-1.0064 0,-0.032 0.47466,-2.1016 1.05479,-4.5984 0.58015,-2.497 1.05481,-4.6464 1.05481,-4.7766 0,-0.4569 -4.78419,-3.0437 -8.30976,-4.4929 -3.58987,-1.4756 -8.78973,-3.0024 -9.02441,-2.6498 -0.0609,0.091 -1.23373,1.9724 -2.60636,4.1797 -1.62248,2.609 -2.56971,3.9849 -2.70722,3.9322 -0.11631,-0.045 -1.57276,-0.1723 -3.23664,-0.2837 -2.42909,-0.1627 -3.60628,-0.1621 -5.97456,0 -1.62224,0.113 -3.13505,0.2426 -3.3618,0.2879 -0.38594,0.077 -0.5715,-0.175 -2.90592,-3.9476 -1.37154,-2.2164 -2.54563,-4.0897 -2.6091,-4.1627 -0.26001,-0.2993 -5.50387,1.2403 -8.8191,2.5893 -3.52821,1.4356 -8.53466,4.1407 -8.53836,4.6135 -0.003,0.1399 0.47267,2.2471 1.05283,4.6829 0.58012,2.4356 1.05478,4.5183 1.05478,4.6283 0,0.11 -0.60243,0.6652 -1.33879,1.2338 -1.72228,1.3301 -5.43719,5.0451 -6.76724,6.7673 -0.56867,0.7363 -1.14991,1.3376 -1.29165,1.3363 -0.14173,0 -2.30243,-0.4719 -4.80139,-1.0456 l -4.54369,-1.0431 -0.27564,0.3559 c -0.48969,0.6324 -2.36577,4.0405 -3.1885,5.7923 -1.12027,2.3854 -2.3205,5.6867 -3.09668,8.5175 -0.3633,1.325 -0.66053,2.4578 -0.66053,2.5173 0,0.06 1.86711,1.2705 4.14919,2.6911 l 4.1492,2.5829 -0.0974,0.9736 c -0.43466,4.3456 -0.41823,7.9669 0.0513,11.3112 l 0.12991,0.9256 -3.33904,2.0683 c -1.83647,1.1375 -3.7174,2.3083 -4.17989,2.6018 l -0.84076,0.5335 0.54662,2.0712 c 0.73605,2.789 1.8754,6.019504 2.99773,8.500004 0.94914,2.0979 2.91227,5.688 3.4925,6.3865 l 0.32457,0.3909 4.70614,-1.1196 4.70615,-1.1197 0.40571,0.5159 c 2.20334,2.8014 5.05353,5.7017 7.58692,7.7197 0.87405,0.6963 1.31482,1.1541 1.26892,1.3179 -0.21908,0.7816 -2.04018,8.9572 -2.04018,9.1588 0,0.4811 5.35331,3.3443 8.763,4.6871 2.64491,1.0415 7.40489,2.5109 8.19494,2.5298 0.25151,0.01 0.90686,-0.9258 2.91227,-4.141 z m 4.39552,-12.3184 c -12.36954,-1.6834 -22.82825,-9.148 -28.17813,-20.112304 -2.74425,-5.6232 -3.78618,-10.115 -3.78327,-16.3089 0.003,-6.2117 0.99137,-10.5022 3.73353,-16.2066 1.76387,-3.6692 3.68829,-6.3902 6.70984,-9.4879 5.90232,-6.0508 13.82659,-9.9129 22.20991,-10.8244 2.32784,-0.2531 7.81368,-0.1185 9.93035,0.2437 10.21212,1.7477 19.29183,7.6746 24.86951,16.2341 2.0316,3.1176 4.1148,8.0235 4.9612,11.684 1.92249,8.314 0.87162,17.2135 -2.93106,24.8221 -5.53243,11.069404 -16.25996,18.524804 -28.83958,20.043804 -1.88849,0.228 -6.72015,0.1793 -8.68071,-0.088 z m 21.25953,-12.5736 c 0.29687,-0.328 0.2702,-0.3617 -2.409,-3.0445 -2.28965,-2.2926 -2.70933,-2.7877 -2.70933,-3.1957 0,-0.4039 0.3647,-0.848304 2.22914,-2.716404 2.99191,-2.9975 2.56926,-3.029 6.05419,0.4513 2.67944,2.676004 2.68923,2.683704 2.99191,2.349304 0.298,-0.3293 0.28927,-0.3898 -0.47665,-3.293304 l -0.7802,-2.9578 -1.54853,-1.573 -1.54855,-1.573 -2.93317,-0.6849 -2.93317,-0.685 -9.25724,-9.2287 -9.25724,-9.2287 -0.53356,-2.2257 c -0.97859,-4.0823 -0.7946,-3.7015 -2.58869,-5.357 l -1.60094,-1.4773 -2.90512,-0.8116 c -2.8792,-0.8044 -2.90777,-0.8088 -3.22421,-0.4959 -0.3169,0.3134 -0.29954,0.3355 2.39355,3.0457 2.26666,2.2808 2.71277,2.8077 2.71277,3.2038 0,0.3932 -0.39365,0.8683 -2.31037,2.7884 -1.74246,1.7456 -2.41014,2.3145 -2.71647,2.3145 -0.30861,0 -1.05492,-0.648 -3.11045,-2.7009 -2.70721,-2.7037 -3.0599,-2.9413 -3.32766,-2.2434 -0.054,0.1407 0.24913,1.5954 0.67363,3.2324 l 0.77189,2.9766 1.56131,1.5426 1.56136,1.5427 2.95116,0.693 2.95117,0.693 9.23078,9.2623 9.23078,9.2622 0.68736,2.952 0.68736,2.952004 1.62468,1.4979 1.62462,1.4979 2.78844,0.7725 c 1.53369,0.4249 2.86835,0.7775 2.96625,0.7836 0.0977,0.01 0.31276,-0.1382 0.47789,-0.3206 z m -30.27097,-1.9585 c 0.94974,-0.4395 1.64472,-1.0767 6.97732,-6.396904 l 5.92244,-5.9086 -0.96518,-0.9754 -0.9652,-0.9754 -2.46327,2.4314 c -2.24261,2.2135 -2.51489,2.4313 -3.03874,2.4313 -0.42844,0 -0.66146,-0.1093 -0.91183,-0.4276 -0.70559,-0.8969 -0.53383,-1.2013 2.27891,-4.0383 l 2.25573,-2.2752 -1.01555,-1.0001 -1.01558,-1.0001 -2.54981,2.4234 c -2.74929,2.6129 -3.05488,2.7792 -3.80921,2.0705 -0.25397,-0.2386 -0.3756,-0.5369 -0.3756,-0.9213 0,-0.5154 0.22677,-0.7969 2.43345,-3.0202 l 2.4334,-2.4518 -0.97504,-0.9648 -0.97507,-0.9649 -5.84624,5.8391 c -6.38598,6.378 -6.63919,6.6984 -7.00299,8.8577 -0.25431,1.5103 0.0204,2.638904 0.93927,3.861304 0.78473,1.0439 2.36855,2.5757 3.29645,3.1882 1.49148,0.9845 3.53615,1.0674 5.3721,0.218 z m 18.82404,-27.892404 -5.59858,-5.4943 -0.77349,0.7549 -0.77343,0.7549 5.55917,5.561 5.55916,5.5611 0.8128,-0.8216 0.81277,-0.8215 z m 6.77783,-4.182 4.05792,-4.1802 1.92524,-0.6293 1.92526,-0.6293 1.69485,-2.4657 c 0.93218,-1.3562 1.71973,-2.5405 1.75019,-2.6319 0.0305,-0.091 -0.74795,-0.9127 -1.72982,-1.8252 l -1.78517,-1.6591 -2.50576,1.796 -2.50577,1.796 -0.62365,1.7864 -0.62367,1.7863 -4.25847,4.2582 -4.25847,4.2582 1.25262,1.26 c 0.68895,0.693 1.33688,1.26 1.43989,1.26 0.103,0 2.01329,-1.8811 4.24497,-4.1801 z" />
      </g>
    </g>
  </g>
</svg>
